<html><body>
<ul>
   <li>
       <h1>The Phantom Menace</h1>
       
   </li>

   <li>
       <h1>Attack of the Clones</h1>
       
   </li>

   <li>
       <h1>Revenge of the Sith</h1>
       <div>Features Luke!</div>
   </li>

   <li>
       <h1>A New Hope</h1>
       <div>Features Luke!</div>
   </li>

   <li>
       <h1>The Empire Strikes Back</h1>
       <div>Features Luke!</div>
   </li>

   <li>
       <h1>Return of the Jedi</h1>
       <div>Features Luke!</div>
   </li>

   <li>
       <h1>The Force Awakens</h1>
       <div>Features Luke!</div>
   </li>

   <li>
       <h1>The Last Jedi</h1>
       <div>Features Luke!</div>
   </li>
</ul>
</body></html>

